<?xml version="1.0" encoding="utf-8"?>
<!-- Generator: Adobe Illustrator 22.0.1, SVG Export Plug-In . SVG Version: 6.00 Build 0)  -->
<svg version="1.1" id="Layer_1" xmlns="http://www.w3.org/2000/svg" xmlns:xlink="http://www.w3.org/1999/xlink" x="0px" y="0px"
	 viewBox="0 0 1280 241.1" style="enable-background:new 0 0 1280 241.1;" xml:space="preserve">
<style type="text/css">
	.st0{fill:#C1272D;}
	.st1{opacity:0.48;fill:#C1272D;}
	.st2{opacity:0.31;fill:#C1272D;}
</style>
<path class="st0" d="M1280,50.5c0-44,0-51,0-51s-477,0-640,0c-14.7,0-640,0-640,0v178c0,0,286.5-125,640-125S1280,50.5,1280,50.5z"
	/>
<path class="st1" d="M1280,68.6c0-59.6,0-69.1,0-69.1s-477,0-640,0c-14.7,0-640,0-640,0v241c0,0,286.5-169.2,640-169.2
	S1280,68.6,1280,68.6z"/>
<path class="st2" d="M1280,58.6c0-50.9,0-59,0-59s-477,0-640,0c-14.7,0-640,0-640,0v206c0,0,286.5-144.7,640-144.7
	S1280,58.6,1280,58.6z"/>
</svg>
