<?xml version="1.0" encoding="utf-8"?>
<!-- Generator: Adobe Illustrator 22.0.1, SVG Export Plug-In . SVG Version: 6.00 Build 0)  -->
<svg version="1.1" id="Layer_1" xmlns="http://www.w3.org/2000/svg" xmlns:xlink="http://www.w3.org/1999/xlink" x="0px" y="0px"
	 viewBox="0 0 1280 163" style="enable-background:new 0 0 1280 163;" xml:space="preserve">
<style type="text/css">
	.st0{fill:#E6E6E6;}
	.st1{fill:#C1272D;}
	.st2{fill:#F15A24;}
	.st3{opacity:0.48;fill:#C1272D;}
</style>
<path class="st0" d="M1280.5,74.7c0-64.4,0-74.7,0-74.7s-477,0-640,0c-14.7,0-640,0-640,0v173c0,0,286.5-95.4,640-95.4
	S1280.5,74.7,1280.5,74.7z"/>
<path class="st1" d="M1280.5,59c0-44,0-59,0-59s-477,0-640,0c-14.7,0-640,0-640,0v149c0,0,285.5-90,639-90S1280.5,59,1280.5,59z"/>
<path class="st3" d="M1280,65c0-56.1,0-65,0-65S803,0,640,0C625.3,0,0,0,0,0l0.5,163c0,0,286-95.4,639.5-95.4S1280,65,1280,65z"/>
</svg>
